15:54:41.947 INFO - Launching a standalone Selenium Server
15:54:42.219 INFO - Java: Oracle Corporation 25.162-b31
15:54:42.221 INFO - OS: Windows 7 6.1 x86
15:54:42.260 INFO - v2.53.1, with Core v2.53.1. Built from revision a36b8b1
15:54:42.445 INFO - Driver class not found: com.opera.core.systems.OperaDriver
15:54:42.446 INFO - Driver provider com.opera.core.systems.OperaDriver is not registered
15:54:42.463 INFO - Driver provider org.openqa.selenium.safari.SafariDriver registration is skipped:
registration capabilities Capabilities [{browserName=safari, version=, platform=MAC}] does not match the current platform VISTA
15:54:42.465 INFO - Driver class not found: org.openqa.selenium.htmlunit.HtmlUnitDriver
15:54:42.465 INFO - Driver provider org.openqa.selenium.htmlunit.HtmlUnitDriver is not registered
15:54:42.806 INFO - RemoteWebDriver instances should connect to: http://127.0.0.1:5555/wd/hub
15:54:42.807 INFO - Selenium Server is up and running
